{
  "serialize": {
    "U2BLEInt": [
      [
        -1,
        "01",
        "ValueError"
      ],
      [
        1,
        "010000",
        "ValueError"
      ]
    ],
    "S4BLEInt": [
      [
        -1,
        "0100000000",
        "ValueError"
      ],
      [
        1,
        "ffffffff",
        "ValueError"
      ]
    ],
    "U4BLEInt": [
      [
        -1,
        "01",
        "ValueError"
      ],
      [
        1,
        "0100000000",
        "ValueError"
      ]
    ],
    "U8BLEInt": [
      [
        -1,
        "01",
        "ValueError"
      ],
      [
        1,
        "010000000000000000",
        "ValueError"
      ]
    ],
    "VarInt": [
      [
        -1,
        "01",
        "ValueError"
      ],
      [
        1,
        "010000000000000000",
        "ValueError"
      ]
    ]
  },
  "deserialize": {
    "U2BLEInt": [
      [
        "010000",
        "ValueError"
      ]
    ],
    "S4BLEInt": [
      [
        "0100000000",
        "ValueError"
      ]
    ],
    "U4BLEInt": [
      [
        "0100000000",
        "ValueError"
      ]
    ],
    "U8BLEInt": [
      [
        "010000000000000000",
        "ValueError"
      ]
    ],
    "IntField": [
      [
        "01000000000000000000",
        "ValueError"
      ]
    ]
  }
}
